2021-04-17 19:17:58,735 INFO: Microblog startup [in D:\web-dev\flask\microblog\app\__init__.py:49]
2021-04-17 19:26:31,147 INFO: Microblog startup [in D:\web-dev\flask\microblog\app\__init__.py:49]
2021-04-17 19:26:41,543 INFO: Microblog startup [in D:\web-dev\flask\microblog\app\__init__.py:49]
2021-04-17 19:30:29,023 INFO: Microblog startup [in D:\web-dev\flask\microblog\app\__init__.py:49]
2021-04-17 19:30:41,623 INFO: Microblog startup [in D:\web-dev\flask\microblog\app\__init__.py:49]
2021-04-17 19:30:51,125 INFO: Microblog startup [in D:\web-dev\flask\microblog\app\__init__.py:49]
2021-04-17 19:30:57,092 INFO: Microblog startup [in D:\web-dev\flask\microblog\app\__init__.py:49]
2021-04-17 19:31:00,970 INFO: Microblog startup [in D:\web-dev\flask\microblog\app\__init__.py:49]
2021-04-17 19:39:20,451 INFO: Microblog startup [in D:\web-dev\flask\microblog\app\__init__.py:49]
2021-04-17 19:42:31,575 INFO: Microblog startup [in D:\web-dev\flask\microblog\app\__init__.py:49]
2021-04-17 19:52:55,789 ERROR: Exception on /user/guhan [GET] [in d:\web-dev\flask\microblog\venv\lib\site-packages\flask\app.py:1891]
Traceback (most recent call last):
  File "d:\web-dev\flask\microblog\venv\lib\site-packages\flask\app.py", line 2447, in wsgi_app
    response = self.full_dispatch_request()
  File "d:\web-dev\flask\microblog\venv\lib\site-packages\flask\app.py", line 1952, in full_dispatch_request
    rv = self.handle_user_exception(e)
  File "d:\web-dev\flask\microblog\venv\lib\site-packages\flask\app.py", line 1821, in handle_user_exception
    reraise(exc_type, exc_value, tb)
  File "d:\web-dev\flask\microblog\venv\lib\site-packages\flask\_compat.py", line 39, in reraise
    raise value
  File "d:\web-dev\flask\microblog\venv\lib\site-packages\flask\app.py", line 1950, in full_dispatch_request
    rv = self.dispatch_request()
  File "d:\web-dev\flask\microblog\venv\lib\site-packages\flask\app.py", line 1936, in dispatch_request
    return self.view_functions[rule.endpoint](**req.view_args)
  File "d:\web-dev\flask\microblog\venv\lib\site-packages\flask_login\utils.py", line 272, in decorated_view
    return func(*args, **kwargs)
  File "D:\web-dev\flask\microblog\app\routes.py", line 79, in user
    form = EmptyForm()
  File "d:\web-dev\flask\microblog\venv\lib\site-packages\flask\templating.py", line 137, in render_template
    return _render(
  File "d:\web-dev\flask\microblog\venv\lib\site-packages\flask\templating.py", line 120, in _render
    rv = template.render(context)
  File "d:\web-dev\flask\microblog\venv\lib\site-packages\jinja2\environment.py", line 1090, in render
    self.environment.handle_exception()
  File "d:\web-dev\flask\microblog\venv\lib\site-packages\jinja2\environment.py", line 832, in handle_exception
    reraise(*rewrite_traceback_stack(source=source))
  File "d:\web-dev\flask\microblog\venv\lib\site-packages\jinja2\_compat.py", line 28, in reraise
    raise value.with_traceback(tb)
  File "D:\web-dev\flask\microblog\app\templates\user.html", line 1, in top-level template code
    {% extends "base.html" %}
  File "D:\web-dev\flask\microblog\app\templates\base.html", line 31, in top-level template code
    {% block content %}{% endblock %}
  File "D:\web-dev\flask\microblog\app\templates\user.html", line 14, in block "content"
    <p>{{ user.followers.count() }} followers, {{ user.followed.count() }} following.</p>
  File "d:\web-dev\flask\microblog\venv\lib\site-packages\jinja2\environment.py", line 471, in getattr
    return getattr(obj, attribute)
jinja2.exceptions.UndefinedError: 'app.models.User object' has no attribute 'followers'
2021-04-17 19:57:05,139 INFO: Microblog startup [in D:\web-dev\flask\microblog\app\__init__.py:49]
2021-04-17 19:57:31,964 INFO: Microblog startup [in D:\web-dev\flask\microblog\app\__init__.py:49]
2021-04-18 09:43:25,408 INFO: Microblog startup [in D:\web-dev\flask\microblog\app\__init__.py:49]
2021-04-18 09:59:49,938 ERROR: Exception on / [GET] [in d:\web-dev\flask\microblog\venv\lib\site-packages\flask\app.py:1891]
Traceback (most recent call last):
  File "d:\web-dev\flask\microblog\venv\lib\site-packages\flask\app.py", line 2447, in wsgi_app
    response = self.full_dispatch_request()
  File "d:\web-dev\flask\microblog\venv\lib\site-packages\flask\app.py", line 1952, in full_dispatch_request
    rv = self.handle_user_exception(e)
  File "d:\web-dev\flask\microblog\venv\lib\site-packages\flask\app.py", line 1821, in handle_user_exception
    reraise(exc_type, exc_value, tb)
  File "d:\web-dev\flask\microblog\venv\lib\site-packages\flask\_compat.py", line 39, in reraise
    raise value
  File "d:\web-dev\flask\microblog\venv\lib\site-packages\flask\app.py", line 1950, in full_dispatch_request
    rv = self.dispatch_request()
  File "d:\web-dev\flask\microblog\venv\lib\site-packages\flask\app.py", line 1936, in dispatch_request
    return self.view_functions[rule.endpoint](**req.view_args)
  File "d:\web-dev\flask\microblog\venv\lib\site-packages\flask_login\utils.py", line 272, in decorated_view
    return func(*args, **kwargs)
  File "D:\web-dev\flask\microblog\app\routes.py", line 31, in index
    return render_template('index.html', title='Home', user=user, posts=posts)
  File "d:\web-dev\flask\microblog\venv\lib\site-packages\flask\templating.py", line 137, in render_template
    return _render(
  File "d:\web-dev\flask\microblog\venv\lib\site-packages\flask\templating.py", line 120, in _render
    rv = template.render(context)
  File "d:\web-dev\flask\microblog\venv\lib\site-packages\jinja2\environment.py", line 1090, in render
    self.environment.handle_exception()
  File "d:\web-dev\flask\microblog\venv\lib\site-packages\jinja2\environment.py", line 832, in handle_exception
    reraise(*rewrite_traceback_stack(source=source))
  File "d:\web-dev\flask\microblog\venv\lib\site-packages\jinja2\_compat.py", line 28, in reraise
    raise value.with_traceback(tb)
  File "D:\web-dev\flask\microblog\app\templates\index.html", line 1, in top-level template code
    {% extends "base.html" %}
  File "D:\web-dev\flask\microblog\app\templates\base.html", line 31, in top-level template code
    {% block content %}{% endblock %}
  File "D:\web-dev\flask\microblog\app\templates\index.html", line 6, in block "content"
    {{ form.hidden_tag() }}
  File "d:\web-dev\flask\microblog\venv\lib\site-packages\jinja2\environment.py", line 471, in getattr
    return getattr(obj, attribute)
jinja2.exceptions.UndefinedError: 'form' is undefined
2021-04-18 10:00:01,958 ERROR: Exception on /index [GET] [in d:\web-dev\flask\microblog\venv\lib\site-packages\flask\app.py:1891]
Traceback (most recent call last):
  File "d:\web-dev\flask\microblog\venv\lib\site-packages\flask\app.py", line 2447, in wsgi_app
    response = self.full_dispatch_request()
  File "d:\web-dev\flask\microblog\venv\lib\site-packages\flask\app.py", line 1952, in full_dispatch_request
    rv = self.handle_user_exception(e)
  File "d:\web-dev\flask\microblog\venv\lib\site-packages\flask\app.py", line 1821, in handle_user_exception
    reraise(exc_type, exc_value, tb)
  File "d:\web-dev\flask\microblog\venv\lib\site-packages\flask\_compat.py", line 39, in reraise
    raise value
  File "d:\web-dev\flask\microblog\venv\lib\site-packages\flask\app.py", line 1950, in full_dispatch_request
    rv = self.dispatch_request()
  File "d:\web-dev\flask\microblog\venv\lib\site-packages\flask\app.py", line 1936, in dispatch_request
    return self.view_functions[rule.endpoint](**req.view_args)
  File "d:\web-dev\flask\microblog\venv\lib\site-packages\flask_login\utils.py", line 272, in decorated_view
    return func(*args, **kwargs)
  File "D:\web-dev\flask\microblog\app\routes.py", line 31, in index
    return render_template('index.html', title='Home', user=user, posts=posts)
  File "d:\web-dev\flask\microblog\venv\lib\site-packages\flask\templating.py", line 137, in render_template
    return _render(
  File "d:\web-dev\flask\microblog\venv\lib\site-packages\flask\templating.py", line 120, in _render
    rv = template.render(context)
  File "d:\web-dev\flask\microblog\venv\lib\site-packages\jinja2\environment.py", line 1090, in render
    self.environment.handle_exception()
  File "d:\web-dev\flask\microblog\venv\lib\site-packages\jinja2\environment.py", line 832, in handle_exception
    reraise(*rewrite_traceback_stack(source=source))
  File "d:\web-dev\flask\microblog\venv\lib\site-packages\jinja2\_compat.py", line 28, in reraise
    raise value.with_traceback(tb)
  File "D:\web-dev\flask\microblog\app\templates\index.html", line 1, in top-level template code
    {% extends "base.html" %}
  File "D:\web-dev\flask\microblog\app\templates\base.html", line 31, in top-level template code
    {% block content %}{% endblock %}
  File "D:\web-dev\flask\microblog\app\templates\index.html", line 6, in block "content"
    {{ form.hidden_tag() }}
  File "d:\web-dev\flask\microblog\venv\lib\site-packages\jinja2\environment.py", line 471, in getattr
    return getattr(obj, attribute)
jinja2.exceptions.UndefinedError: 'form' is undefined
2021-04-18 11:16:36,647 INFO: Microblog startup [in D:\web-dev\flask\microblog\app\__init__.py:51]
2021-04-18 11:19:58,456 INFO: Microblog startup [in D:\web-dev\flask\microblog\app\__init__.py:51]
2021-04-18 11:24:23,897 INFO: Microblog startup [in D:\web-dev\flask\microblog\app\__init__.py:51]
2021-04-18 11:25:00,785 INFO: Microblog startup [in D:\web-dev\flask\microblog\app\__init__.py:51]
2021-04-18 11:28:12,128 INFO: Microblog startup [in D:\web-dev\flask\microblog\app\__init__.py:51]
2021-04-18 11:29:01,064 INFO: Microblog startup [in D:\web-dev\flask\microblog\app\__init__.py:52]
2021-04-18 11:29:42,865 INFO: Microblog startup [in D:\web-dev\flask\microblog\app\__init__.py:52]
2021-04-18 11:30:07,101 INFO: Microblog startup [in D:\web-dev\flask\microblog\app\__init__.py:52]
2021-04-18 12:06:34,061 INFO: Microblog startup [in D:\web-dev\flask\microblog\app\__init__.py:51]
2021-04-18 12:06:50,196 INFO: Microblog startup [in D:\web-dev\flask\microblog\app\__init__.py:51]
